username,name,password
ipsindirapuramncrRitaSingh1,Rita Singh,39790733NAtgNSmMlVrqlhV
ipsindirapuramncrAnjaliVerma2,Anjali Verma,06721696VPSiBNbdRwLIDPD
ipsindirapuramncrNeelamBhardwaj3,Neelam Bhardwaj,62605334FOBGzIvMlQBqurA
ipsindirapuramncrRachnaPaliwal4,Rachna Paliwal,27865777QtKlbVLmHmnvxGJ
ipsindirapuramncrMonikaGupta5,Monika Gupta,20159713NXynMfRKRwhyCub
ipsindirapuramncrSomaDixit6,Soma Dixit,52412552IgWykNzMitRggPD
ipsindirapuramncrJayaSarkar7,Jaya Sarkar ,40224784rYGzbDwoXnpefeD
ipsindirapuramncrSamaliSaha8,Samali Saha,65311713DdvFdIZJkaBmhrH
ipsindirapuramncrJ.K.Panda9,J.K.Panda,85151276SWDmgEsgNsyWbzc
ipsindirapuramncrDeepaliMathur10,Deepali Mathur,53852884xPQXOStkJunjvjw
ipsindirapuramncrAnupamSharma11,Anupam Sharma,76760761bUoQTVYoxwZEWTg
ipsindirapuramncrNituHalder12,Nitu Halder,66139097TFRjUwQYYtYlzfS
ipsindirapuramncrBinduAggarwal13,Bindu Aggarwal,03026640OWRaKmskPbLJDCP
ipsindirapuramncrPapiyaLodh14,Papiya Lodh,73672562zZOIvkflMhHhpZT
ipsindirapuramncrR.Vijaya15,R.Vijaya,29378808gZEROPzhVNnEGNd
ipsindirapuramncrMeenaMattoo16,Meena Mattoo,16429386mLatUPqlYAMkofU
ipsindirapuramncrSumanSingh17,Suman Singh,47331116rTOIzWMcRYyJjxD
ipsindirapuramncrKiranSharma18,Kiran Sharma,28063496PXjzmazbailuaqN
ipsindirapuramncrAnamikaJoshi19,Anamika Joshi,75274589fsJXctViGweooFP
ipsindirapuramncrYashika20,Yashika,79575877nBJpHckyXOaFlQH
ipsindirapuramncrPoojaVohra21,Pooja Vohra,36871972oosqcoDLnWFMWed
ipsindirapuramncrNeerajVerma22,Neeraj Verma,81182290QSXrHooJXriEuMU
ipsindirapuramncrHenaMirchandani23,Hena Mirchandani,69491443RtVShKpnvKoGGUE
ipsindirapuramncrSheejaR.S.24,Sheeja R.S.,20723538DHAOtSWVGedTgKK
ipsindirapuramncrAnjaliMaheshwari25,Anjali Maheshwari,79321174ImCkqnydUYicHqa
ipsindirapuramncrMuktaBhardwaj26,Mukta Bhardwaj,86662473qlFxolCqWlVrKEM
ipsindirapuramncrVandanaSharma27,Vandana Sharma,39710462QAcwYRZUupTDdRt
ipsindirapuramncrRachnaMehrotra28,Rachna Mehrotra,23601636ROicVNwBscqYQUi
ipsindirapuramncrRichaSaxena29,Richa Saxena,26020685yNoyjwepzsFugKu
ipsindirapuramncrSushmaJha30,Sushma Jha,50103759SdPHozuxIWKvKBx
ipsindirapuramncrTarveenBakshi31,Tarveen Bakshi,84456861nhyJOmXrWGVIqsO
ipsindirapuramncrSushantDuggal32,Sushant Duggal,12839680KoTyahtCntacauv
ipsindirapuramncrSumitaTomar33,Sumita Tomar,67310504vpBpxSWJrJMLpBZ
ipsindirapuramncrRakheeSingh34,Rakhee Singh,14832922PyepkCBvbgnWeyb
ipsindirapuramncrShwetaNegi35,Shweta Negi,15199963shNAZuKQWohkcjx
ipsindirapuramncrShwetaKakkar36,Shweta Kakkar,57613009soGonrtihtgoUAR
ipsindirapuramncrSangeetaSrivastava37,Sangeeta Srivastava,82875250ecfDSNRhqmjtTQf
ipsindirapuramncrRakhiSharma38,Rakhi Sharma,22955559awOFsqDhZIkdhGM
ipsindirapuramncrSangeetaSaini39,Sangeeta Saini,69084222klCnZIaCUGhzcwL
ipsindirapuramncrMeetaBose40,Meeta Bose,28489248sCoKkWULGbjvpej
ipsindirapuramncrSuchitraDubey41,Suchitra Dubey,91101995oAEBYXGlnOjRvYd
ipsindirapuramncrNavjyotDhanoa42,Navjyot Dhanoa,59006396CaODivxCwDTtmaz
ipsindirapuramncrAnuMehta43,Anu Mehta,14202743VAlUZCZHwSdzUuM
ipsindirapuramncrSonalKapoor44,Sonal Kapoor,54521970NVJLABZrqaxZscr
ipsindirapuramncrPratibhaDixit45,Pratibha Dixit,13268156lOZErkceMhKRdHk
ipsindirapuramncrMaliniGarg46,Malini Garg,64933767euoFulfvHSgpqsd
ipsindirapuramncrNitishaMukherjee47,Nitisha Mukherjee,98296700YwloLKkuVxZERmF
ipsindirapuramncrNidhiNayyar48,Nidhi Nayyar,90453333rHVbFvcRAKPblZA
ipsindirapuramncrRitaSahni49,Rita Sahni,66259829BJhcIHYZobSLroH
ipsindirapuramncrAnamikaBhardwaj50,Anamika Bhardwaj,04814499jQZXWoLAfvwHJum
ipsindirapuramncrSeemaBhatia51,Seema Bhatia,30751538svRvNZVFWMLtDyy
ipsindirapuramncrVirenderSingh52,Virender Singh,15243246TCovfOzeaZBEleQ
ipsindirapuramncrAvinashKr.Pandey53,Avinash Kr. Pandey,04822190HyctyoIapezcvir
ipsindirapuramncrAmritaSingh54,Amrita Singh,03031805lIQNwVlTEaMXOoc
ipsindirapuramncrRoliSingh55,Roli Singh,48937087hjgGBnYQSyxCxNL
ipsindirapuramncrSunitaWadhawan56,Sunita Wadhawan,17569467JrmNOLgCKiAkqxG
ipsindirapuramncrPoojaTandon57,Pooja Tandon,57446331iaEkVzvhJKlfgWV
ipsindirapuramncrHimanshiPardeshi58,Himanshi Pardeshi,50923502HEvpIlTOKWwwlhi
ipsindirapuramncrSoumoliMitra59,Soumoli Mitra,94478541SbPudemSTVCyWQK
ipsindirapuramncrAnitaMehta60,Anita Mehta,28766907gjDdjofHZXLoptM
ipsindirapuramncrPavinderKaur61,Pavinder Kaur,82660327VVBvEYVtGBoTIzx
ipsindirapuramncrSamhitaSenGupta62,Samhita Sen Gupta,81775149HNcmruCqYEjHVdp
ipsindirapuramncrDeeptiAran63,Deepti Aran,72562364fcxQqWQIAEIqOXj
ipsindirapuramncrUttkarsh64,Uttkarsh,84782504gWitRjXVAZWMYaI
ipsindirapuramncrVineetaPrakash65,Vineeta Prakash,02006827EZOOHJMfeyPHZmC
ipsindirapuramncrRuchiJain66,Ruchi Jain,68870353UtwsTIPqYWrQqoL
ipsindirapuramncrNarjisHusain67,Narjis Husain,69856220nPvFBQkMEsCXAJA
ipsindirapuramncrMonikaKandir68,Monika Kandir,87276135XtpaNDKIlHGUPfL
ipsindirapuramncrKanikaGogoi69,Kanika Gogoi,32931126HOsOdhPZNzPcvTy
ipsindirapuramncrSiddharthShankarTiwari70,Siddharth Shankar Tiwari,52968623uiWklhvjTJanJqd
ipsindirapuramncrRumaGosh71,Ruma Gosh,03302734ESWVyhvUiLpLdZo
ipsindirapuramncrManmeetKaur72,Manmeet Kaur,28996783vViyYASVLEMMPsU
ipsindirapuramncrAartiRana73,Aarti Rana,31193066QOwtGvcAhcdreYl
ipsindirapuramncrShwetaThapliyal74,Shweta Thapliyal,24944827LmhFupSgiolCUyB
ipsindirapuramncrPragyaKumari75,Pragya Kumari,43866053ZdUtqMYSAGmBAkh
ipsindirapuramncrShaliniChauhan76,Shalini Chauhan,08091770jfqyYYyxRuXivVE
ipsindirapuramncrIvaPant77,Iva Pant,24801824auSUuEzhbtDFxzA
ipsindirapuramncrPoojaGupta78,Pooja Gupta,73905212ZaGKUYjzdldGBtN
ipsindirapuramncrArvindSingh79,Arvind Singh,15703303NdYwBRNrhpoWNnm
ipsindirapuramncrBabitaBhardwaj80,Babita Bhardwaj,01604237QABnVAFiVrUlEFT
ipsindirapuramncrKiranAggarwal81,Kiran Aggarwal,53968105RhQLVgZBGoOLthQ
ipsindirapuramncrRenuArora82,Renu Arora,30259684aFtMphxCVPZGaSM
ipsindirapuramncrNirmeshSharma83,Nirmesh Sharma,55266637FWnVkjNgzGaKqjl
ipsindirapuramncrMoumitaSinha84,Moumita Sinha ,55207927ZMRJqhugMEpEKzR
ipsindirapuramncrRinkySharma85,Rinky Sharma,84876846VhGZihmLTyzNXPY
ipsindirapuramncrSunitiGaur86,Suniti Gaur,28988013jpOqaOgYTmZHNUv
ipsindirapuramncrGitanjaliSharma87,Gitanjali Sharma,13492761pDUTMjUzKKRiMUY
ipsindirapuramncrDeepaSaxena88,Deepa Saxena,17995170PifKpdBpzRPayGW
ipsindirapuramncrJ.M.TasneemKauser89,J.M. Tasneem Kauser,25177943NCIMVUUmmUtDRUZ
ipsindirapuramncrSwatiModani90,Swati Modani,19647711QDIWCgMgTgXqzvq
ipsindirapuramncrMamtaSharma91,Mamta Sharma,28934324VERRHCeqdrKJmJo
ipsindirapuramncrPankajRawat92,Pankaj Rawat,56206369yYqmEtPCfBXneYw
ipsindirapuramncrNehaSharma93,Neha Sharma,99247667zyiAyRGtopGYgRO
ipsindirapuramncrMonikaRana94,Monika Rana,13089337FZhhmWVXjHjcVYI
ipsindirapuramncrDiptiKumra95,Dipti Kumra,09192429ckfdjeyhwgEZPlt
ipsindirapuramncrShilpaBhatia96,Shilpa Bhatia,30867901ZyCosRuckKZXfaR
ipsindirapuramncrAnuKhanna97,Anu Khanna,53809570UwPSCQiVjdhBjLr
ipsindirapuramncrAmbikaKhadanga98,Ambika Khadanga,56348743DMNunfROUPzqxQQ
ipsindirapuramncrPoonamSood99,Poonam Sood,53520085kPujqFUjUPrpzfz
ipsindirapuramncrRajkumar100,Rajkumar,66939111tAkDqYsFGACbtPD
ipsindirapuramncrPraveen101,Praveen,13669867bYMyOeQydTOPQHu
ipsindirapuramncrInduRai102,Indu Rai,54383545wOpdqJhxZodiBvI
ipsindirapuramncrDeeptiSharma103,Deepti Sharma,83813176dgVMRcBCyskbrll
ipsindirapuramncrShardaRoy104,Sharda Roy,54635239bxTtfSuUnbzulzz
ipsindirapuramncrShubhiGoel105,Shubhi Goel,97252470aBtYNcQuMQKpfSz
ipsindirapuramncrManishaKumari106,Manisha Kumari,04271242GLBkYbVgZmXbcVe
ipsindirapuramncrGeetaRani107,Geeta Rani,96038666sNiRVkzipKfTDzM
ipsindirapuramncrSusantaLalKar108,Susanta Lal Kar,39708238APMHdSOxEhEvwsZ
ipsindirapuramncrJyotiRastogi109,Jyoti Rastogi,38145089POhhxfGUcmeWPLu
ipsindirapuramncrPrakash110,Prakash,33771795zutJbskrvttTsDS
ipsindirapuramncrGurpalKaur111,Gurpal Kaur,77443931zLZiZwXEcCSCYTF
ipsindirapuramncrGeetaSisodia112,Geeta Sisodia,47003040gllocApmnEmaemr
ipsindirapuramncrJasbeerKaur113,Jasbeer Kaur,59679249VnnHvlzKHfQUEpH
ipsindirapuramncrBabitaRawat114,Babita Rawat,98233444wPcsDmQVIHSMhWr
ipsindirapuramncrViqarFatima115,Viqar Fatima,94540569iTDNUxTewojTNCb
ipsindirapuramncrPankhuri116,Pankhuri,12453912zNPiwwahrELnATQ
ipsindirapuramncrRachnaKumar117,Rachna Kumar,26208203eKUhsnahQRoiRBn
ipsindirapuramncrDineshTyagi118,Dinesh Tyagi,53275182FXcZuRYubapyrKu